…
mapping_df <-
  base_service_df %>% 
    left_join(centroid_coords, by = c("installation_name" = "site_name"))

#write_rds(mapping_df, file = "data/mapping_df.rds")
                              


mapping_df                              
```

```
## # A tibble: 24 x 11
##    installation_na~     A     C     F     M     N service region state_terr
##    <chr>            <dbl> <dbl> <dbl> <dbl> <dbl> <chr>   <chr>  <chr>     
##  1 Fort Benning     20600     0    44    98    53 Army    South~ Georgia   
##  2 Fort Bragg       20546     0   376    23    19 Army    South~ North Car~
##  3 Camp Lejeune        48    29    12 11721  1387 Marine~ South~ North Car~
##  4 Parris Island        4     0     0 10804    68 Marine~ South~ South Car~
##  5 Fort Campbell     8738     5    21     0     9 Army    Ohio ~ Kentucky  
##  6 Fort Polk         7396     0    53    12     5 Army    South  Louisiana 
##  7 Fort Jackson      7495     0   151    13   123 Army    South~ South Car~
##  8 Camp Pendleton      36     5     4  6137   413 Marine~ West   California
##  9 Fort Hood         5412     4    21   184   209 Army    South  Texas     
## 10 Mcrd San Diego      38    18     5  4031  1035 Marine~ West   California
## # ... with 14 more rows, and 2 more variables: geometry <MULTIPOLYGON [°]>,
## #   centroid <POINT [°]>
```
…
