dlnm
…
dlnm

SL

10/19/2020

Load daily NLDAS indices

nldas_daily <- read_rds("C:/Users/slewa/Projects/heat_stress/data/nldas_daily.rds")

nldas_daily 

## # A tibble: 273,925 x 14
##    installation date       tmp_f_mean heat_index_mean wbgt_f_mean tmp_f_max
##    <chr>        <date>          <dbl>           <dbl>       <dbl>     <dbl>
##  1 eglin_afb    1990-01-01       47.9            45.7        45.8      54.7
##  2 eglin_afb    1990-01-02       47.8            45.5        44.9      53.8
##  3 eglin_afb    1990-01-03       55.8            55.0        54.3      65.0
##  4 eglin_afb    1990-01-04       60.0            59.9        59.3      66.4
##  5 eglin_afb    1990-01-05       60.7            60.8        60.1      66.7
##  6 eglin_afb    1990-01-06       60.5            60.4        60.0      65.1
##  7 eglin_afb    1990-01-07       60.6            60.7        59.9      64.2
##  8 eglin_afb    1990-01-08       52.3            51.1        51.6      58.3
##  9 eglin_afb    1990-01-09       51.5            50.2        50.6      61.3
## 10 eglin_afb    1990-01-10       56.2            55.2        54.8      66.6
## # ... with 273,915 more rows, and 8 more variables: heat_index_max <dbl>,
## #   wbgt_f_max <dbl>, tmp_f_min <dbl>, heat_index_min <dbl>, wbgt_f_min <dbl>,
## #   tmp_f_sd <dbl>, heat_index_sd <dbl>, wbgt_f_sd <dbl>
…
108248/31647 #3.42 cases per control

## [1] 3.420482

# Mean_WBGT

cc_exposure_df %>%
  group_by(installation_name, case) %>% 
  summarise(mean_wbgt = mean(wbgt_f_mean))

## `summarise()` regrouping output by 'installation_name' (override with `.groups` argument)

## # A tibble: 48 x 3
## # Groups:   installation_name [24]
##    installation_name  case mean_wbgt
##    <chr>             <dbl>     <dbl>
##  1 eglin_afb             0      79.4
##  2 eglin_afb             1      79.4
##  3 fort_benning_ga       0      76.6
##  4 fort_benning_ga       1      76.6
##  5 fort_bliss            0      62.9
##  6 fort_bliss            1      62.8
##  7 fort_bragg            0      69.4
##  8 fort_bragg            1      69.3
##  9 fort_campbell         0      64.7
## 10 fort_campbell         1      64.8
## # ... with 38 more rows
…
Examine linear fit

mean WBGT gt 50 deg F

cc_exposure_gt50 

## # A tibble: 129,291 x 40
##    installation_na~ studyid d_event    dmisid dx1   dx2   dx1_name source age  
##    <chr>            <chr>   <date>     <chr>  <chr> <chr> <chr>    <chr>  <chr>
##  1 fort_benning_ga  S00059~ 2005-09-20 0048   9923  7906  <NA>     INPAT~ 20-24
##  2 fort_benning_ga  S00005~ 2001-07-12 0048   9925  <NA>  <NA>     INPAT~ 25-29
##  3 fort_benning_ga  S00063~ 1999-09-07 0048   9925  9921  <NA>     OUTPA~ 25-29
##  4 fort_benning_ga  S00009~ 2011-08-09 0048   9925  4659  <NA>     OUTPA~ <20  
##  5 fort_benning_ga  S00064~ 2018-07-05 0048   J189  T670~ <NA>     INPAT~ 20-24
##  6 fort_benning_ga  S00012~ 1999-07-01 0048   9923  <NA>  <NA>     INPAT~ 25-29
##  7 fort_benning_ga  S00027~ 2011-05-31 1315   9195  9925  <NA>     OUTPA~ 20-24
##  8 fort_benning_ga  S00018~ 2014-06-25 0048   9920  2768  <NA>     INPAT~ 25-29
##  9 fort_benning_ga  S00026~ 2015-08-19 0048   9925  5849  <NA>     INPAT~ 20-24
## 10 fort_benning_ga  S00049~ 2016-05-19 1316   T675~ R112  <NA>     OUTPA~ 20-24
## # ... with 129,281 more rows, and 31 more variables: sex <chr>,
## #   race_ethnic <chr>, service <chr>, component <chr>, grade <chr>, hsi <chr>,
## #   height <chr>, weight <chr>, bmi <dbl>, hor_country <chr>, hor_state <chr>,
## #   year <dbl>, facility_name <chr>, facility_zipcode <chr>, dmis_fy <dbl>,
## #   n <int>, control_date <date>, case <dbl>, date <date>, tmp_f_mean <dbl>,
## #   heat_index_mean <dbl>, wbgt_f_mean <dbl>, tmp_f_max <dbl>,
## #   heat_index_max <dbl>, wbgt_f_max <dbl>, tmp_f_min <dbl>,
## #   heat_index_min <dbl>, wbgt_f_min <dbl>, tmp_f_sd <dbl>,
## #   heat_index_sd <dbl>, wbgt_f_sd <dbl>
…
