dmisid
…
Download DMIS Year End 1989 - 2019 files from: https://www.health.mil/Military-Health-Topics/Technology/Support-Areas/Geographic-Reference-Information/DMIS-ID-Tables

# List all DMISIS file paths (FY1989 - 2019)
dmisid_file_list <- list.files("data/dmisid/", pattern = '*.xls',   full.names = TRUE)

dmisid_file_list <- setNames(dmisid_file_list, dmisid_file_list) 
  
# Read-in all Excel files
dmisid_df <- map_df(dmisid_file_list, readxl::read_excel, .id = "id")

dmisid_df %>% 
      filter(is.na(`Installation Name`) & is.na(`Installation Name (35-character maximum)`))

## # A tibble: 8,026 x 37
##    id    `DMIS ID` `Facility Name` `DMIS Facility ~ `Facility Locat~
##    <chr> <chr>     <chr>           <chr>            <chr>           
##  1 data~ <NA>      <NA>            <NA>             <NA>            
##  2 data~ 0000      FLAG FOR DEERS~ <NA>             XY              
##  3 data~ 0149      DEERS PROGRAM ~ <NA>             XY              
##  4 data~ 0152      ARMY, OFFICE O~ ARMY, OFFICE OF~ XY              
##  5 data~ 0153      NAVY, OFFICE O~ NAVY, OFFICE OF~ XY              
##  6 data~ 0154      USAF OFFICE OF~ USAF OFFICE OF ~ XY              
##  7 data~ 0155      USCG, OFFICE O~ USCG, OFF OF CH~ XY              
##  8 data~ 0156      DHHS(PHS), BUR~ DHHS, BUR OF PR~ XY              
##  9 data~ 0157      NOAA, OFFICE O~ NOAA, OFFICE OF~ XY              
## 10 data~ 0161      NATIONAL PERSO~ NTNL PERSNNL RC~ XY              
## # ... with 8,016 more rows, and 32 more variables: `Facility City Name` <chr>,
## #   `Facility ZIP Code` <chr>, `US Flag Code` <chr>, `Installation Name` <chr>,
## #   `DMIS Parent ID` <chr>, `Facility Type Code` <chr>, `Facility Service
## #   Code` <chr>, `MEPRS Unit ID` <chr>, `DCW ID` <chr>, `MEPRS Parent
## #   ID` <chr>, `Health Service Region` <chr>, `Facility Country Code` <chr>,
## #   `Facility State Code` <chr>, `Facility 5-Digit ZIP Code` <chr>, `Facility
## #   4-Digit ZIP Code` <chr>, `Service Area Code` <chr>, `Facility Command
## #   Code` <chr>, `Authorized TRICARE Enrollment Site (Y/N)` <chr>, `DHP
## #   Code` <chr>, `Branch of Service/ Authority Code` <chr>, `NPI 2
…
# dmisid %>% 
#     filter(is.na(installation_name) & is.na(facility_zipcode))

#dmisid %>% 
#  naniar::vis_miss()  

dmisid %>% 
  group_by(dmis_id) %>% 
  count()

## # A tibble: 5,014 x 2
## # Groups:   dmis_id [5,014]
##    dmis_id     n
##    <chr>   <int>
##  1 0000       31
##  2 0001       31
##  3 0002       31
##  4 0003       31
##  5 0004       31
##  6 0005       31
##  7 0006       31
##  8 0007       31
##  9 0008       31
## 10 0009       31
## # ... with 5,004 more rows
…
# Join encounters with DMISID based on table key for each FY

# encounters_casedef <-
#   list(encounters_casedef, dmisid) %>% reduce(left_join, by = c("dmisid" = "dmis_id"))

encounters_casedef_inst <-
  encounters_casedef %>% 
    left_join(dmisid_distinct, by = c("dmisid" = "dmis_id")) 

encounters_casedef_inst

## # A tibble: 66,702 x 24
##    studyid d_event    dmisid dx1   dx2   dx1_name source age   sex   race_ethnic
##    <chr>   <date>     <chr>  <chr> <chr> <chr>    <chr>  <chr> <chr> <chr>      
##  1 S00052~ 1993-07-09 0621   9925  2449  <NA>     INPAT~ 35-39 M     Non-Hispan~
##  2 S00041~ 2003-10-08 0423   9922  <NA>  <NA>     OUTPA~ >=40  M     Non-Hispan~
##  3 S00012~ 1998-11-06 0052   9920  72889 <NA>     INPAT~ 25-29 M     Non-Hispan~
##  4 S00029~ 1995-07-14 0091   9928  <NA>  <NA>     INPAT~ 20-24 M     Non-Hispan~
##  5 S00041~ 2007-04-30 0615   9925  <NA>  <NA>     OUTPA~ 35-39 M     Non-Hispan~
##  6 S00011~ 2003-06-04 0089   9920  V6543 <NA>     OUTPA~ 30-34 M     Non-Hispan~
##  7 S00011~ 1998-10-31 0089   9921  <NA>  <NA>     INPAT~ 25-29 M     Non-Hispan~
##  8 S00003~ 1993-08-06 0091   9920  <NA>  <NA>     INPAT~ <20   M     Non-Hispan~
##  9 S00041~ 2013-06-27 7113   9925  72888 <NA>     INPAT~ 35-39 M     Non-Hispan~
## 10 S00047~ 1991-10-24 0092   9925  <NA>  <NA>     INPAT~ 20-24 M     Non-Hispan~
## # ... with 66,692 more rows, and 14 more variables: service <chr>,
## #   component <chr>, grade <chr>, hsi <chr>, height <chr>, weight <chr>,
## #   bmi <dbl>, hor_country <chr>, hor_state <chr>, year <dbl>,
## #   facility_name <chr>, facility_zipcode <chr>, installation_name <chr>,
## #   dmis_fy <dbl>
# Inspect missing values
#encounters_casedef %>%
#  dplyr::select(dmisid, facility_name:installation_name) %>% 
#  naniar::vis_miss(warn_large_data = FALSE) 

no_dmisid_match <-
  encounters_casedef_inst %>% 
  filter(is.na(installation_name))

no_dmisid_match %>% 
  group_by(dmisid) %>% 
  count() %>% 
  arrange(desc(n))

## # A tibble: 70 x 2
## # Groups:   dmisid [70]
##    dmisid     n
##    <chr>  <int>
##  1 6133     446
##  2 0785     144
##  3 0000      89
##  4 0784      55
##  5 0786      48
##  6 7452      36
##  7 7459      36
##  8 0780      29
##  9 K003      22
## 10 7917      18
## # ... with 60 more rows

# Inspect facility names of DMISIDs missing installation names
no_dmisid_match %>% 
  group_by(facility_name) %>% 
  count() %>% 
  arrange(desc(n))

## # A tibble: 42 x 2
## # Groups:   facility_name [42]
##    facility_name                      n
##    <chr>                          <int>
##  1 <NA>                             557
##  2 ARIZONA-EXCLUDING YUMA AREA      144
##  3 IA-FLAG FOR DEERS PRGRM OFFICE    89
##  4 WESTERN MISSOURI                  55
##  5 YUMA ARIZONA AREA                 48
##  6 CONTG BAGRAM/CAMP LACY            36
##  7 IA-CONTG-BAGHDAD                  36
##  8 KENTUCKY-EXCL FT CAMPBELL AREA    29
##  9 REMOTE 17(NORTH)                  18
## 10 EMF KANDAHAR                      15
## # ... with 32 more rows
…
encounters_casedef_inst %>% 
  group_by(installation_name) %>% 
  count() %>% 
  arrange(desc(n))

## # A tibble: 460 x 2
## # Groups:   installation_name [460]
##    installation_name     n
##    <chr>             <int>
##  1 FT BENNING         7467
##  2 FT BRAGG           6113
##  3 FT JACKSON         4542
##  4 CAMP LEJEUNE       3601
##  5 PARRIS ISLAND      2954
##  6 FT CAMPBELL        2710
##  7 FT POLK            2250
##  8 CAMP PENDLETON     2009
##  9 FT HOOD            1957
## 10 BEAUFORT           1479
## # ... with 450 more rows

encounters_casedef_inst %>% 
  dplyr::filter(is.na(installation_name)) #965 missing

## # A tibble: 1,134 x 24
##    studyid d_event    dmisid dx1   dx2   dx1_name source age   sex   race_ethnic
##    <chr>   <date>     <chr>  <chr> <chr> <chr>    <chr>  <chr> <chr> <chr>      
##  1 S00012~ 2006-10-04 0786   9925  <NA>  <NA>     OUTPA~ <20   M     Non-Hispan~
##  2 S00021~ 2018-09-08 0780   T675~ J029  <NA>     OUTPA~ <20   M     Non-Hispan~
##  3 S00006~ 2006-06-21 0784   27651 9923  <NA>     OUTPA~ 30-34 F     Non-Hispan~
##  4 S00015~ 2015-06-10 0784   9923  <NA>  <NA>     OUTPA~ 25-29 M     Non-Hispan~
##  5 S00065~ 2013-02-06 0975   9925  <NA>  <NA>     OUTPA~ 35-39 M     Non-Hispan~
##  6 S00058~ 2005-07-15 7919   9925  V726  <NA>     OUTPA~ 35-39 M     Non-Hispan~
##  7 S00026~ 2017-07-19 7917   T670~ D65   <NA>     INPAT~ 25-29 M     Non-Hispan~
##  8 S00036~ 2004-07-16 7917   9925  7806  <NA>     OUTPA~ 35-39 M     Non-Hispan~
##  9 S00032~ 2013-08-10 0786   7802  9920  <NA>     OUTPA~ 20-24 M     Non-Hispan~
## 10 S00016~ 2017-07-10 0786   E860  T679~ <NA>     OUTPA~ 20-24 M     Hispanic   
## # ... with 1,124 more rows, and 14 more variables: service <chr>,
## #   component <chr>, grade <chr>, hsi <chr>, height <chr>, weight <chr>,
## #   bmi <dbl>, hor_country <chr>, hor_state <chr>, year <dbl>,
## #   facility_name <chr>, facility_zipcode <chr>, installation_name <chr>,
## #   dmis_fy <dbl>

encounters_casedef_inst %>% 
  dplyr::filter(is.na(facility_zipcode)) #3,850 missing

## # A tibble: 4,209 x 24
##    studyid d_event    dmisid dx1   dx2   dx1_name source age   sex   race_ethnic
##    <chr>   <date>     <chr>  <chr> <chr> <chr>    <chr>  <chr> <chr> <chr>      
##  1 S00019~ 2007-07-02 0907   9925  <NA>  <NA>     OUTPA~ 25-29 M     Non-Hispan~
##  2 S00005~ 2015-07-20 1170   9925  <NA>  <NA>     OUTPA~ 20-24 M     Non-Hispan~
##  3 S00028~ 2019-05-04 0930   R4182 T675~ <NA>     OUTPA~ 20-24 F     Non-Hispan~
##  4 S00046~ 2010-08-31 0995   9925  7802  <NA>     OUTPA~ 25-29 M     Non-Hispan~
##  5 S00043~ 2013-05-31 0939   9925  27651 <NA>     OUTPA~ 25-29 M     Non-Hispan~
##  6 S00016~ 2017-07-31 0933   T675~ R55   <NA>     OUTPA~ 20-24 M     Non-Hispan~
##  7 S00012~ 2006-10-04 0786   9925  <NA>  <NA>     OUTPA~ <20   M     Non-Hispan~
##  8 S00045~ 2008-08-05 0927   9922  7840  <NA>     OUTPA~ 25-29 M     Non-Hispan~
##  9 S00056~ 2016-06-16 0911   E860  T675~ <NA>     OUTPA~ 20-24 M     Non-Hispan~
## 10 S00021~ 2018-09-08 0780   T675~ J029  <NA>     OUTPA~ <20   M     Non-Hispan~
## # ... with 4,199 more rows, and 14 more variables: service <chr>,
## #   component <chr>, grade <chr>, hsi <chr>, height <chr>, weight <chr>,
## #   bmi <dbl>, hor_country <chr>, hor_state <chr>, year <dbl>,
## #   facility_name <chr>, facility_zipcode <chr>, installation_name <chr>,
## #   dmis_fy <dbl>
…
# write_rds(encounters_casedef_inst, "data/encounters_casedef_inst.rds")

Summarize counts by installation

# encounters_casedef_inst <-
#   read_rds("data/encounters_casedef_inst.rds")

encounters_casedef_inst %>% 
    group_by(installation_name) %>% 
    count() %>% 
    arrange(desc(n)) 

## # A tibble: 452 x 2
## # Groups:   installation_name [452]
##    installation_name     n
##    <chr>             <int>
##  1 FT BENNING         7467
##  2 FT BRAGG           6113
##  3 FT JACKSON         4542
##  4 PARRIS ISLAND      4433
##  5 CAMP LEJEUNE       3876
##  6 FT CAMPBELL        2712
##  7 FT POLK            2250
##  8 CAMP PENDLETON     2009
##  9 FT HOOD            1957
## 10 FT STEWART         1465
## # ... with 442 more rows
…
# Cumulative percentages

encounters_casedef_inst %>% 
    group_by(installation_name) %>% 
    count() %>% 
    arrange(desc(n)) %>% 
    ungroup() %>% 
    mutate(cum_pct = cumsum(n) / sum(n),
           change_cum_pct = cum_pct - lag(cum_pct)) %>% 
    dplyr::slice_head(n = 50) 

## # A tibble: 50 x 4
##    installation_name     n cum_pct change_cum_pct
##    <chr>             <int>   <dbl>          <dbl>
##  1 FT BENNING         7467   0.112        NA     
##  2 FT BRAGG           6113   0.204         0.0916
##  3 FT JACKSON         4542   0.272         0.0681
##  4 PARRIS ISLAND      4433   0.338         0.0665
##  5 CAMP LEJEUNE       3876   0.396         0.0581
##  6 FT CAMPBELL        2712   0.437         0.0407
##  7 FT POLK            2250   0.471         0.0337
##  8 CAMP PENDLETON     2009   0.501         0.0301
##  9 FT HOOD            1957   0.530         0.0293
## 10 FT STEWART         1465   0.552         0.0220
## # ... with 40 more rows
…
