…
eval(parse(text = paste0(selected_index, "_nest_base"))) 
```

```
## # A tibble: 24 x 6
## # Groups:   installation_name [24]
##    installation_name cc_lag_matrix  cc_lag_only  index_cb   index_dlnm pred_dlnm
##    <chr>             <list>         <list>       <list>     <list>     <list>   
##  1 fort_benning      <tibble [20,7~ <tibble [20~ <crossbss~ <clogit>   <crosspr~
##  2 fort_bragg        <tibble [20,9~ <tibble [20~ <crossbss~ <clogit>   <crosspr~
##  3 camp_lejeune      <tibble [13,1~ <tibble [13~ <crossbss~ <clogit>   <crosspr~
##  4 parris_island     <tibble [10,8~ <tibble [10~ <crossbss~ <clogit>   <crosspr~
##  5 fort_campbell     <tibble [8,77~ <tibble [8,~ <crossbss~ <clogit>   <crosspr~
##  6 fort_polk         <tibble [7,46~ <tibble [7,~ <crossbss~ <clogit>   <crosspr~
##  7 fort_jackson      <tibble [7,78~ <tibble [7,~ <crossbss~ <clogit>   <crosspr~
##  8 camp_pendleton    <tibble [6,59~ <tibble [6,~ <crossbss~ <clogit>   <crosspr~
##  9 fort_hood         <tibble [5,83~ <tibble [5,~ <crossbss~ <clogit>   <crosspr~
## 10 mcrd_san_diego    <tibble [5,12~ <tibble [5,~ <crossbss~ <clogit>   <crosspr~
## # ... with 14 more rows
```
…
