…
daily_indices %>% 
  count(installation)
```

```
## # A tibble: 24 x 2
## # Groups:   installation [24]
##    installation       n
##    <chr>          <int>
##  1 camp_lejeune   10958
##  2 camp_pendleton 10958
##  3 eglin_afb      10958
##  4 fort_benning   10958
##  5 fort_bliss     10958
##  6 fort_bragg     10958
##  7 fort_campbell  10958
##  8 fort_gordon    10958
##  9 fort_hood      10958
## 10 fort_jackson   10958
## # ... with 14 more rows
```

```r
cc_exposure_df %>% 
  count(installation_name) 
```

```
## # A tibble: 24 x 2
##    installation_name     n
##    <fct>             <int>
##  1 fort_benning      20795
##  2 fort_bragg        20964
##  3 camp_lejeune      13197
##  4 parris_island     10876
##  5 fort_campbell      8773
##  6 fort_polk          7466
##  7 fort_jackson       7782
##  8 camp_pendleton     6595
##  9 fort_hood          5830
## 10 mcrd_san_diego     5127
## # ... with 14 more rows
```
…
temp_max_nest_base
```

```
## # A tibble: 24 x 6
## # Groups:   installation_name [24]
##    installation_name cc_lag_matrix  cc_lag_only  index_cb   index_dlnm pred_dlnm
##    <chr>             <list>         <list>       <list>     <list>     <list>   
##  1 fort_benning      <tibble [20,7~ <tibble [20~ <crossbss~ <clogit>   <crosspr~
##  2 fort_bragg        <tibble [20,9~ <tibble [20~ <crossbss~ <clogit>   <crosspr~
##  3 camp_lejeune      <tibble [13,1~ <tibble [13~ <crossbss~ <clogit>   <crosspr~
##  4 parris_island     <tibble [10,8~ <tibble [10~ <crossbss~ <clogit>   <crosspr~
##  5 fort_campbell     <tibble [8,77~ <tibble [8,~ <crossbss~ <clogit>   <crosspr~
##  6 fort_polk         <tibble [7,46~ <tibble [7,~ <crossbss~ <clogit>   <crosspr~
##  7 fort_jackson      <tibble [7,78~ <tibble [7,~ <crossbss~ <clogit>   <crosspr~
##  8 camp_pendleton    <tibble [6,59~ <tibble [6,~ <crossbss~ <clogit>   <crosspr~
##  9 fort_hood         <tibble [5,83~ <tibble [5,~ <crossbss~ <clogit>   <crosspr~
## 10 mcrd_san_diego    <tibble [5,12~ <tibble [5,~ <crossbss~ <clogit>   <crosspr~
## # ... with 14 more rows
```
…
