…
daily_indices %>% 
  count(installation) 
```

```
## # A tibble: 24 x 2
## # Groups:   installation [24]
##    installation       n
##    <chr>          <int>
##  1 camp_lejeune   10958
##  2 camp_pendleton 10958
##  3 eglin_afb      10958
##  4 fort_benning   10958
##  5 fort_bliss     10958
##  6 fort_bragg     10958
##  7 fort_campbell  10958
##  8 fort_gordon    10958
##  9 fort_hood      10958
## 10 fort_jackson   10958
## # ... with 14 more rows
```

```r
cc_exposure_df %>% 
  count(installation_name) 
```

```
## # A tibble: 24 x 2
##    installation_name     n
##    <fct>             <int>
##  1 fort_benning      20795
##  2 fort_bragg        20964
##  3 camp_lejeune      13197
##  4 parris_island     10876
##  5 fort_campbell      8773
##  6 fort_polk          7466
##  7 fort_jackson       7782
##  8 camp_pendleton     6595
##  9 fort_hood          5830
## 10 mcrd_san_diego     5127
## # ... with 14 more rows
```


# cases at >92 deg F

```r
cc_exposure_df %>% 
  filter(wbgt_max >= 92)
```

```
## # A tibble: 6,061 x 48
##    installation_na~ studyid d_event    dmisid dx1   dx2   dx1_name source age  
##    <fct>            <chr>   <date>     <chr>  <chr> <chr> <chr>    <chr>  <chr>
##  1 fort_benning     S00040~ 2012-07-25 1315   9925  <NA>  <NA>     OUTPA~ 20-24
##  2 fort_benning     S00022~ 2004-06-29 0048   9925  E9000 <NA>     OUTPA~ <20  
##  3 fort_benning     S00014~ 1998-07-19 0048   9925  <NA>  <NA>     OUTPA~ 20-24
##  4 fort_benning     S00008~ 2013-07-30 0048   9925  E9000 <NA>     OUTPA~ 20-24
##  5 fort_benning     S00013~ 2010-06-23 0048   9925  E9000 <NA>     OUTPA~ 20-24
##  6 fort_benning     S00062~ 2005-08-22 1557   9925  <NA>  <NA>     OUTPA~ <20  
##  7 fort_benning     S00003~ 2000-08-09 0048   2765  9925  <NA>     OUTPA~ 20-24
##  8 fort_benning     S00030~ 2005-07-26 0048   9925  E9000 <NA>     OUTPA~ 25-29
##  9 fort_benning     S00052~ 2005-07-29 0048   9920  E9000 <NA>     INPAT~ 30-34
## 10 fort_benning     S00049~ 2007-08-13 0048   9920  2761  <NA>     INPAT~ 20-24
## # ... with 6,051 more rows, and 39 more variables: sex <chr>,
## #   race_ethnic <chr>, service <chr>, component <chr>, grade <chr>, hsi <chr>,
## #   height <chr>, weight <chr>, bmi <dbl>, hor_country <chr>, hor_state <chr>,
## #   year <dbl>, facility_name <chr>, facility_zipcode <chr>, dmis_fy <dbl>,
## #   n <int>, control_date <date>, case <dbl>, date <date>, tmp_f_mean <dbl>,
## #   heat_index_mean <dbl>, wbgt_mean <dbl>, wbgt_u_mean <dbl>, tmp_f_max <dbl>,
## #   heat_index_max <dbl>, wbgt_max <dbl>, wbgt_u_max <dbl>, tmp_f_min <dbl>,
## #   heat_index_min <dbl>, wbgt_min <dbl>, wbgt_u_min <dbl>, tmp_f_max95 <dbl>,
## #   heat_index_max95 <dbl>, wbgt_max95 <dbl>, wbgt_u_max95 <dbl>,
…
wbgt_max_nest_base
```

```
## # A tibble: 24 x 6
## # Groups:   installation_name [24]
##    installation_name cc_lag_matrix  cc_lag_only  index_cb   index_dlnm pred_dlnm
##    <chr>             <list>         <list>       <list>     <list>     <list>   
##  1 fort_benning      <tibble [20,7~ <tibble [20~ <crossbss~ <clogit>   <crosspr~
##  2 fort_bragg        <tibble [20,9~ <tibble [20~ <crossbss~ <clogit>   <crosspr~
##  3 camp_lejeune      <tibble [13,1~ <tibble [13~ <crossbss~ <clogit>   <crosspr~
##  4 parris_island     <tibble [10,8~ <tibble [10~ <crossbss~ <clogit>   <crosspr~
##  5 fort_campbell     <tibble [8,77~ <tibble [8,~ <crossbss~ <clogit>   <crosspr~
##  6 fort_polk         <tibble [7,46~ <tibble [7,~ <crossbss~ <clogit>   <crosspr~
##  7 fort_jackson      <tibble [7,78~ <tibble [7,~ <crossbss~ <clogit>   <crosspr~
##  8 camp_pendleton    <tibble [6,59~ <tibble [6,~ <crossbss~ <clogit>   <crosspr~
##  9 fort_hood         <tibble [5,83~ <tibble [5,~ <crossbss~ <clogit>   <crosspr~
## 10 mcrd_san_diego    <tibble [5,12~ <tibble [5,~ <crossbss~ <clogit>   <crosspr~
## # ... with 14 more rows
```
…
